<svg xmlns="http://www.w3.org/2000/svg" width="13.59" height="11.967" viewBox="0 0 13.59 11.967">
  <g id="Group_11" data-name="Group 11" transform="translate(0 0)">
    <path id="Path_14" data-name="Path 14" d="M26.658,19.881,17.541,15.03a1.123,1.123,0,0,0-.754-.108l-2.207.454a1.124,1.124,0,0,0-.7,1.732l1.972,2.9a1.36,1.36,0,0,0,1.038.6l4.1.279-4.261.317a1.117,1.117,0,0,0-.847.49l-2.022,2.982a1.123,1.123,0,0,0,.719,1.734l2.339.446a.763.763,0,0,0,.145.014.781.781,0,0,0,.366-.091l9.231-4.909a1.124,1.124,0,0,0,0-1.984Z" transform="translate(-13.664 -14.898)" fill="#fff"/>
  </g>
</svg>
